{"count":807,"next":"https://pokeapi.co/api/v2/pokemon-species?offset=81&limit=40","previous":"https://pokeapi.co/api/v2/pokemon-species?offset=1&limit=40","results":[{"name":"golbat","url":"https://pokeapi.co/api/v2/pokemon-species/42/"},{"name":"oddish","url":"https://pokeapi.co/api/v2/pokemon-species/43/"},{"name":"gloom","url":"https://pokeapi.co/api/v2/pokemon-species/44/"},{"name":"vileplume","url":"https://pokeapi.co/api/v2/pokemon-species/45/"},{"name":"paras","url":"https://pokeapi.co/api/v2/pokemon-species/46/"},{"name":"parasect","url":"https://pokeapi.co/api/v2/pokemon-species/47/"},{"name":"venonat","url":"https://pokeapi.co/api/v2/pokemon-species/48/"},{"name":"venomoth","url":"https://pokeapi.co/api/v2/pokemon-species/49/"},{"name":"diglett","url":"https://pokeapi.co/api/v2/pokemon-species/50/"},{"name":"dugtrio","url":"https://pokeapi.co/api/v2/pokemon-species/51/"},{"name":"meowth","url":"https://pokeapi.co/api/v2/pokemon-species/52/"},{"name":"persian","url":"https://pokeapi.co/api/v2/pokemon-species/53/"},{"name":"psyduck","url":"https://pokeapi.co/api/v2/pokemon-species/54/"},{"name":"golduck","url":"https://pokeapi.co/api/v2/pokemon-species/55/"},{"name":"mankey","url":"https://pokeapi.co/api/v2/pokemon-species/56/"},{"name":"primeape","url":"https://pokeapi.co/api/v2/pokemon-species/57/"},{"name":"growlithe","url":"https://pokeapi.co/api/v2/pokemon-species/58/"},{"name":"arcanine","url":"https://pokeapi.co/api/v2/pokemon-species/59/"},{"name":"poliwag","url":"https://pokeapi.co/api/v2/pokemon-species/60/"},{"name":"poliwhirl","url":"https://pokeapi.co/api/v2/pokemon-species/61/"},{"name":"poliwrath","url":"https://pokeapi.co/api/v2/pokemon-species/62/"},{"name":"abra","url":"https://pokeapi.co/api/v2/pokemon-species/63/"},{"name":"kadabra","url":"https://pokeapi.co/api/v2/pokemon-species/64/"},{"name":"alakazam","url":"https://pokeapi.co/api/v2/pokemon-species/65/"},{"name":"machop","url":"https://pokeapi.co/api/v2/pokemon-species/66/"},{"name":"machoke","url":"https://pokeapi.co/api/v2/pokemon-species/67/"},{"name":"machamp","url":"https://pokeapi.co/api/v2/pokemon-species/68/"},{"name":"bellsprout","url":"https://pokeapi.co/api/v2/pokemon-species/69/"},{"name":"weepinbell","url":"https://pokeapi.co/api/v2/pokemon-species/70/"},{"name":"victreebel","url":"https://pokeapi.co/api/v2/pokemon-species/71/"},{"name":"tentacool","url":"https://pokeapi.co/api/v2/pokemon-species/72/"},{"name":"tentacruel","url":"https://pokeapi.co/api/v2/pokemon-species/73/"},{"name":"geodude","url":"https://pokeapi.co/api/v2/pokemon-species/74/"},{"name":"graveler","url":"https://pokeapi.co/api/v2/pokemon-species/75/"},{"name":"golem","url":"https://pokeapi.co/api/v2/pokemon-species/76/"},{"name":"ponyta","url":"https://pokeapi.co/api/v2/pokemon-species/77/"},{"name":"rapidash","url":"https://pokeapi.co/api/v2/pokemon-species/78/"},{"name":"slowpoke","url":"https://pokeapi.co/api/v2/pokemon-species/79/"},{"name":"slowbro","url":"https://pokeapi.co/api/v2/pokemon-species/80/"},{"name":"magnemite","url":"https://pokeapi.co/api/v2/pokemon-species/81/"}]}